APS's/APS4 - Computer/computer/computer_run.vcd
$date
	Fri Aug 15 08:36:47 2025
$end
$version
	Icarus Verilog
$end
$timescale
	1s
$end
$scope module computer_tb $end
$var wire 8 ! port_out_00 [7:0] $end
$var parameter 32 " PERIODO_CLK $end
$var parameter 32 # RESULTADO_ESPERADO $end
$var parameter 32 $ VALOR_ENTRADA_FUNCAO $end
$var reg 1 % clk $end
$var reg 8 & port_in_00 [7:0] $end
$var reg 8 ' port_in_01 [7:0] $end
$var reg 8 ( port_in_02 [7:0] $end
$var reg 8 ) port_in_03 [7:0] $end
$var reg 8 * port_in_04 [7:0] $end
$var reg 8 + port_in_05 [7:0] $end
$var reg 8 , port_in_06 [7:0] $end
$var reg 8 - port_in_07 [7:0] $end
$var reg 8 . port_in_08 [7:0] $end
$var reg 8 / port_in_09 [7:0] $end
$var reg 8 0 port_in_10 [7:0] $end
$var reg 8 1 port_in_11 [7:0] $end
$var reg 8 2 port_in_12 [7:0] $end
$var reg 8 3 port_in_13 [7:0] $end
$var reg 8 4 port_in_14 [7:0] $end
$var reg 8 5 port_in_15 [7:0] $end
$var reg 1 6 reset $end
$scope module dut $end
$var wire 1 % clk $end
$var wire 8 7 port_in_00 [7:0] $end
$var wire 8 8 port_in_01 [7:0] $end
$var wire 8 9 port_in_02 [7:0] $end
$var wire 8 : port_in_03 [7:0] $end
$var wire 8 ; port_in_04 [7:0] $end
$var wire 8 < port_in_05 [7:0] $end
$var wire 8 = port_in_06 [7:0] $end
$var wire 8 > port_in_07 [7:0] $end
$var wire 8 ? port_in_08 [7:0] $end
$var wire 8 @ port_in_09 [7:0] $end
$var wire 8 A port_in_10 [7:0] $end
$var wire 8 B port_in_11 [7:0] $end
$var wire 8 C port_in_12 [7:0] $end
$var wire 8 D port_in_13 [7:0] $end
$var wire 8 E port_in_14 [7:0] $end
$var wire 8 F port_in_15 [7:0] $end
$var wire 1 6 reset $end
$var wire 1 G write $end
$var wire 8 H to_memory [7:0] $end
$var wire 8 I port_out_15 [7:0] $end
$var wire 8 J port_out_14 [7:0] $end
$var wire 8 K port_out_13 [7:0] $end
$var wire 8 L port_out_12 [7:0] $end
$var wire 8 M port_out_11 [7:0] $end
$var wire 8 N port_out_10 [7:0] $end
$var wire 8 O port_out_09 [7:0] $end
$var wire 8 P port_out_08 [7:0] $end
$var wire 8 Q port_out_07 [7:0] $end
$var wire 8 R port_out_06 [7:0] $end
$var wire 8 S port_out_05 [7:0] $end
$var wire 8 T port_out_04 [7:0] $end
$var wire 8 U port_out_03 [7:0] $end
$var wire 8 V port_out_02 [7:0] $end
$var wire 8 W port_out_01 [7:0] $end
$var wire 8 X port_out_00 [7:0] $end
$var wire 8 Y from_memory [7:0] $end
$var wire 8 Z address [7:0] $end
$scope module CPU $end
$var wire 1 % clk $end
$var wire 1 6 reset $end
$var wire 1 G write $end
$var wire 8 [ to_memory [7:0] $end
$var wire 2 \ selBUS2 [1:0] $end
$var wire 2 ] selBUS1 [1:0] $end
$var wire 3 ^ selALU [2:0] $end
$var wire 8 _ outIR [7:0] $end
$var wire 4 ` outCCR [3:0] $end
$var wire 1 a loadPC $end
$var wire 1 b loadB $end
$var wire 1 c loadA $end
$var wire 8 d from_memory [7:0] $end
$var wire 1 e enPC $end
$var wire 1 f enMAR $end
$var wire 1 g enIR $end
$var wire 1 h enCCR $end
$var wire 8 i address [7:0] $end
$scope module ControlUnit $end
$var wire 1 % clk $end
$var wire 1 6 reset $end
$var wire 8 j IR [7:0] $end
$var wire 4 k CCR_Result [3:0] $end
$var parameter 3 l ADD $end
$var parameter 32 m ADD_0 $end
$var parameter 32 n ADD_1 $end
$var parameter 8 o ADD_AB $end
$var parameter 3 p AND $end
$var parameter 32 q AND_0 $end
$var parameter 32 r AND_1 $end
$var parameter 8 s AND_AB $end
$var parameter 8 t BCC $end
$var parameter 32 u BCC_0 $end
$var parameter 32 v BCC_1 $end
$var parameter 32 w BCC_2 $end
$var parameter 8 x BCS $end
$var parameter 32 y BCS_0 $end
$var parameter 32 z BCS_1 $end
$var parameter 32 { BCS_2 $end
$var parameter 8 | BEQ $end
$var parameter 32 } BEQ_0 $end
$var parameter 32 ~ BEQ_1 $end
$var parameter 32 !" BEQ_2 $end
$var parameter 8 "" BMI $end
$var parameter 32 #" BMI_0 $end
$var parameter 32 $" BMI_1 $end
$var parameter 32 %" BMI_2 $end
$var parameter 8 &" BNE $end
$var parameter 32 '" BNE_0 $end
$var parameter 32 (" BNE_1 $end
$var parameter 32 )" BNE_2 $end
$var parameter 8 *" BPL $end
$var parameter 32 +" BPL_0 $end
$var parameter 32 ," BPL_1 $end
$var parameter 32 -" BPL_2 $end
$var parameter 8 ." BRA $end
$var parameter 32 /" BRA_0 $end
$var parameter 32 0" BRA_1 $end
$var parameter 32 1" BRA_2 $end
$var parameter 8 2" BVC $end
$var parameter 32 3" BVC_0 $end
$var parameter 32 4" BVC_1 $end
$var parameter 32 5" BVC_2 $end
$var parameter 8 6" BVS $end
$var parameter 32 7" BVS_0 $end
$var parameter 32 8" BVS_1 $end
$var parameter 32 9" BVS_2 $end
$var parameter 3 :" DEC $end
$var parameter 8 ;" DECA $end
$var parameter 8 <" DECB $end
$var parameter 32 =" DECODE $end
$var parameter 32 >" DEC_0 $end
$var parameter 32 ?" DEC_1 $end
$var parameter 32 @" DEC_B $end
$var parameter 32 A" FETCH_0 $end
$var parameter 32 B" FETCH_1 $end
$var parameter 32 C" FETCH_2 $end
$var parameter 3 D" INC $end
$var parameter 8 E" INCA $end
$var parameter 8 F" INCB $end
$var parameter 32 G" INC_0 $end
$var parameter 32 H" INC_1 $end
$var parameter 32 I" INC_B $end
$var parameter 8 J" LDA_DIR $end
$var parameter 32 K" LDA_DIR_0 $end
$var parameter 32 L" LDA_DIR_1 $end
$var parameter 32 M" LDA_DIR_2 $end
$var parameter 32 N" LDA_DIR_3 $end
$var parameter 32 O" LDA_DIR_4 $end
$var parameter 8 P" LDA_IMM $end
$var parameter 32 Q" LDA_IMM_0 $end
$var parameter 32 R" LDA_IMM_1 $end
$var parameter 32 S" LDA_IMM_2 $end
$var parameter 8 T" LDB_DIR $end
$var parameter 32 U" LDB_DIR_0 $end
$var parameter 32 V" LDB_DIR_1 $end
$var parameter 32 W" LDB_DIR_2 $end
$var parameter 32 X" LDB_DIR_3 $end
$var parameter 32 Y" LDB_DIR_4 $end
$var parameter 8 Z" LDB_IMM $end
$var parameter 32 [" LDB_IMM_0 $end
$var parameter 32 \" LDB_IMM_1 $end
$var parameter 32 ]" LDB_IMM_2 $end
$var parameter 3 ^" NOT $end
$var parameter 8 _" NOTA $end
$var parameter 8 `" NOTB $end
$var parameter 32 a" NOT_0 $end
$var parameter 32 b" NOT_1 $end
$var parameter 32 c" NOT_B $end
$var parameter 3 d" OR $end
$var parameter 32 e" OR_0 $end
$var parameter 32 f" OR_1 $end
$var parameter 8 g" OR_AB $end
$var parameter 8 h" STA_DIR $end
$var parameter 32 i" STA_DIR_0 $end
$var parameter 32 j" STA_DIR_1 $end
$var parameter 32 k" STA_DIR_2 $end
$var parameter 32 l" STA_DIR_3 $end
$var parameter 8 m" STB_DIR $end
$var parameter 32 n" STB_DIR_0 $end
$var parameter 32 o" STB_DIR_1 $end
$var parameter 32 p" STB_DIR_2 $end
$var parameter 32 q" STB_DIR_3 $end
$var parameter 3 r" SUB $end
$var parameter 32 s" SUB_0 $end
$var parameter 32 t" SUB_1 $end
$var parameter 8 u" SUB_AB $end
$var parameter 3 v" XOR $end
$var parameter 32 w" XOR_0 $end
$var parameter 32 x" XOR_1 $end
$var parameter 8 y" XOR_AB $end
$var reg 3 z" ALU_Sel [2:0] $end
$var reg 1 c A_Load $end
$var reg 1 b B_Load $end
$var reg 2 {" Bus1_Sel [1:0] $end
$var reg 2 |" Bus2_Sel [1:0] $end
$var reg 1 h CCR_Load $end
$var reg 1 g IR_Load $end
$var reg 1 f MAR_Load $end
$var reg 1 e PC_Inc $end
$var reg 1 a PC_Load $end
$var reg 8 }" current_state [7:0] $end
$var reg 8 ~" next_state [7:0] $end
$var reg 1 G write $end
$scope begin INITIAL_STATE $end
$upscope $end
$scope begin NEXT_STATE_LOGIC $end
$upscope $end
$scope begin OUTPUT_LOGIC $end
$upscope $end
$scope begin STATE_MEMORY $end
$upscope $end
$upscope $end
$scope module DataPath $end
$var wire 3 !# ALU_Sel [2:0] $end
$var wire 1 c A_Load $end
$var wire 1 b B_Load $end
$var wire 2 "# Bus1_Sel [1:0] $end
$var wire 2 ## Bus2_Sel [1:0] $end
$var wire 1 h CCR_Load $end
$var wire 1 g IR_Load $end
$var wire 1 f MAR_Load $end
$var wire 1 e PC_Inc $end
$var wire 1 a PC_Load $end
$var wire 1 % clk $end
$var wire 1 6 reset $end
$var wire 8 $# from_memory [7:0] $end
$var wire 8 %# address [7:0] $end
$var wire 8 &# PC_out [7:0] $end
$var wire 4 '# NZVC [3:0] $end
$var wire 8 (# IR_out [7:0] $end
$var wire 4 )# CCR_Result [3:0] $end
$var wire 8 *# B_out [7:0] $end
$var wire 8 +# A_out [7:0] $end
$var wire 8 ,# ALU_Result [7:0] $end
$var reg 8 -# bus_1 [7:0] $end
$var reg 8 .# bus_2 [7:0] $end
$var reg 8 /# to_memory [7:0] $end
$scope module A $end
$var wire 1 % clk $end
$var wire 1 c enable $end
$var wire 8 0# reg_in [7:0] $end
$var wire 1 6 reset $end
$var reg 8 1# reg_out [7:0] $end
$upscope $end
$scope module ALU $end
$var wire 8 2# a [7:0] $end
$var wire 8 3# b [7:0] $end
$var wire 3 4# operation [2:0] $end
$var parameter 3 5# ADD $end
$var parameter 3 6# AND $end
$var parameter 3 7# DEC $end
$var parameter 3 8# INC $end
$var parameter 3 9# NOT $end
$var parameter 3 :# OR $end
$var parameter 3 ;# SUB $end
$var parameter 3 <# XOR $end
$var reg 1 =# c $end
$var reg 1 ># n $end
$var reg 8 ?# result [7:0] $end
$var reg 1 @# v $end
$var reg 1 A# z $end
$upscope $end
$scope module B $end
$var wire 1 % clk $end
$var wire 1 b enable $end
$var wire 8 B# reg_in [7:0] $end
$var wire 1 6 reset $end
$var reg 8 C# reg_out [7:0] $end
$upscope $end
$scope module CCR $end
$var wire 1 % clk $end
$var wire 1 h enable $end
$var wire 4 D# reg_in [3:0] $end
$var wire 1 6 reset $end
$var reg 4 E# reg_out [3:0] $end
$upscope $end
$scope module IR $end
$var wire 1 % clk $end
$var wire 1 g enable $end
$var wire 8 F# reg_in [7:0] $end
$var wire 1 6 reset $end
$var reg 8 G# reg_out [7:0] $end
$upscope $end
$scope module MAR $end
$var wire 1 % clk $end
$var wire 1 f enable $end
$var wire 8 H# reg_in [7:0] $end
$var wire 1 6 reset $end
$var reg 8 I# reg_out [7:0] $end
$upscope $end
$scope module PC $end
$var wire 1 % clk $end
$var wire 8 J# count_in [7:0] $end
$var wire 1 e enable $end
$var wire 1 a load $end
$var wire 1 6 reset $end
$var reg 8 K# count [7:0] $end
$upscope $end
$scope begin MUX_BUS1 $end
$upscope $end
$scope begin MUX_BUS2 $end
$upscope $end
$upscope $end
$upscope $end
$scope module Memory $end
$var wire 8 L# address [7:0] $end
$var wire 1 % clk $end
$var wire 8 M# data_in [7:0] $end
$var wire 8 N# port_in_00 [7:0] $end
$var wire 8 O# port_in_01 [7:0] $end
$var wire 8 P# port_in_02 [7:0] $end
$var wire 8 Q# port_in_03 [7:0] $end
$var wire 8 R# port_in_04 [7:0] $end
$var wire 8 S# port_in_05 [7:0] $end
$var wire 8 T# port_in_06 [7:0] $end
$var wire 8 U# port_in_07 [7:0] $end
$var wire 8 V# port_in_08 [7:0] $end
$var wire 8 W# port_in_09 [7:0] $end
$var wire 8 X# port_in_10 [7:0] $end
$var wire 8 Y# port_in_11 [7:0] $end
$var wire 8 Z# port_in_12 [7:0] $end
$var wire 8 [# port_in_13 [7:0] $end
$var wire 8 \# port_in_14 [7:0] $end
$var wire 8 ]# port_in_15 [7:0] $end
$var wire 1 6 reset $end
$var wire 1 G write $end
$var wire 8 ^# rwm_out [7:0] $end
$var wire 8 _# rom_out [7:0] $end
$var wire 8 `# port_out_15 [7:0] $end
$var wire 8 a# port_out_14 [7:0] $end
$var wire 8 b# port_out_13 [7:0] $end
$var wire 8 c# port_out_12 [7:0] $end
$var wire 8 d# port_out_11 [7:0] $end
$var wire 8 e# port_out_10 [7:0] $end
$var wire 8 f# port_out_09 [7:0] $end
$var wire 8 g# port_out_08 [7:0] $end
$var wire 8 h# port_out_07 [7:0] $end
$var wire 8 i# port_out_06 [7:0] $end
$var wire 8 j# port_out_05 [7:0] $end
$var wire 8 k# port_out_04 [7:0] $end
$var wire 8 l# port_out_03 [7:0] $end
$var wire 8 m# port_out_02 [7:0] $end
$var wire 8 n# port_out_01 [7:0] $end
$var wire 8 o# port_out_00 [7:0] $end
$var reg 8 p# data_out [7:0] $end
$scope module OUT $end
$var wire 8 q# address [7:0] $end
$var wire 1 % clk $end
$var wire 8 r# data_in [7:0] $end
$var wire 1 6 reset $end
$var wire 1 G write $end
$var reg 8 s# port_out_00 [7:0] $end
$var reg 8 t# port_out_01 [7:0] $end
$var reg 8 u# port_out_02 [7:0] $end
$var reg 8 v# port_out_03 [7:0] $end
$var reg 8 w# port_out_04 [7:0] $end
$var reg 8 x# port_out_05 [7:0] $end
$var reg 8 y# port_out_06 [7:0] $end
$var reg 8 z# port_out_07 [7:0] $end
$var reg 8 {# port_out_08 [7:0] $end
$var reg 8 |# port_out_09 [7:0] $end
$var reg 8 }# port_out_10 [7:0] $end
$var reg 8 ~# port_out_11 [7:0] $end
$var reg 8 !$ port_out_12 [7:0] $end
$var reg 8 "$ port_out_13 [7:0] $end
$var reg 8 #$ port_out_14 [7:0] $end
$var reg 8 $$ port_out_15 [7:0] $end
$upscope $end
$scope module ROM $end
$var wire 8 %$ address [7:0] $end
$var wire 1 % clk $end
$var parameter 8 &$ ADD_AB $end
$var parameter 8 '$ AND_AB $end
$var parameter 8 ($ BCC $end
$var parameter 8 )$ BCS $end
$var parameter 8 *$ BEQ $end
$var parameter 8 +$ BMI $end
$var parameter 8 ,$ BNE $end
$var parameter 8 -$ BPL $end
$var parameter 8 .$ BRA $end
$var parameter 8 /$ BVC $end
$var parameter 8 0$ BVS $end
$var parameter 8 1$ DECA $end
$var parameter 8 2$ DECB $end
$var parameter 8 3$ INCA $end
$var parameter 8 4$ INCB $end
$var parameter 8 5$ LDA_DIR $end
$var parameter 8 6$ LDA_IMM $end
$var parameter 8 7$ LDB_DIR $end
$var parameter 8 8$ LDB_IMM $end
$var parameter 8 9$ NOTA $end
$var parameter 8 :$ NOTB $end
$var parameter 8 ;$ OR_AB $end
$var parameter 8 <$ STA_DIR $end
$var parameter 8 =$ STB_DIR $end
$var parameter 8 >$ SUB_AB $end
$var parameter 8 ?$ XOR_AB $end
$var reg 1 @$ EN $end
$var reg 8 A$ data_out [7:0] $end
$upscope $end
$scope module RWM $end
$var wire 1 G WE $end
$var wire 8 B$ address [7:0] $end
$var wire 1 % clk $end
$var wire 8 C$ data_in [7:0] $end
$var reg 1 D$ EN $end
$var reg 8 E$ data_out [7:0] $end
$upscope $end
$scope begin MUX $end
$upscope $end
$upscope $end
$upscope $end
$upscope $end
$enddefinitions $end
$comment Show the parameter values. $end
$dumpall
b1001010 ?$
b1000011 >$
b10010111 =$
b10010110 <$
b1000101 ;$
b1001100 :$
b1001011 9$
b10001000 8$
b10001001 7$
b10000110 6$
b10000111 5$
b1000111 4$
b1000110 3$
b1001001 2$
b1001000 1$
b100101 0$
b100110 /$
b100000 .$
b100010 -$
b100100 ,$
b100001 +$
b100011 *$
b100111 )$
b101000 ($
b1000100 '$
b1000010 &$
b110 <#
b10 ;#
b101 :#
b111 9#
b1 8#
b11 7#
b100 6#
b0 5#
b1001010 y"
b100011 x"
b100010 w"
b110 v"
b1000011 u"
b11000 t"
b10111 s"
b10 r"
b1110011 q"
b1110010 p"
b1110001 o"
b1110000 n"
b10010111 m"
b1111 l"
b1110 k"
b1101 j"
b1100 i"
b10010110 h"
b1000101 g"
b100001 f"
b100000 e"
b101 d"
b100110 c"
b100101 b"
b100100 a"
b1001100 `"
b1001011 _"
b111 ^"
b1101010 ]"
b1101001 \"
b1101000 ["
b10001000 Z"
b1101111 Y"
b1101110 X"
b1101101 W"
b1101100 V"
b1101011 U"
b10001001 T"
b110 S"
b101 R"
b100 Q"
b10000110 P"
b1011 O"
b1010 N"
b1001 M"
b1000 L"
b111 K"
b10000111 J"
b10100 I"
b10011 H"
b10010 G"
b1000111 F"
b1000110 E"
b1 D"
b10 C"
b1 B"
b0 A"
b11011 @"
b11010 ?"
b11001 >"
b11 ="
b1001001 <"
b1001000 ;"
b11 :"
b10011000 9"
b110100 8"
b110011 7"
b100101 6"
b10011010 5"
b110110 4"
b110101 3"
b100110 2"
b10001100 1"
b101000 0"
b100111 /"
b100000 ."
b10010000 -"
b101100 ,"
b101011 +"
b100010 *"
b10010110 )"
b110010 ("
b110001 '"
b100100 &"
b10001110 %"
b101010 $"
b101001 #"
b100001 ""
b10010010 !"
b101110 ~
b101101 }
b100011 |
b10011100 {
b111000 z
b110111 y
b100111 x
b10011110 w
b111010 v
b111001 u
b101000 t
b1000100 s
b11111 r
b11110 q
b100 p
b1000010 o
b10001 n
b10000 m
b0 l
b10 $
b1111 #
b1010 "
$end
#0
$dumpvars
bx E$
0D$
b0 C$
b0 B$
bx A$
1@$
b0 %$
b0 $$
b0 #$
b0 "$
b0 !$
b0 ~#
b0 }#
b0 |#
b0 {#
b0 z#
b0 y#
b0 x#
b0 w#
b0 v#
b0 u#
b0 t#
b0 s#
b0 r#
b0 q#
bx p#
b0 o#
b0 n#
b0 m#
b0 l#
b0 k#
b0 j#
b0 i#
b0 h#
b0 g#
b0 f#
b0 e#
b0 d#
b0 c#
b0 b#
b0 a#
b0 `#
bx _#
bx ^#
b0 ]#
b0 \#
b0 [#
b0 Z#
b0 Y#
b0 X#
b0 W#
b0 V#
b0 U#
b0 T#
b0 S#
b0 R#
b0 Q#
b0 P#
b0 O#
b10 N#
b0 M#
b0 L#
b0 K#
b0 J#
b0 I#
b0 H#
b0 G#
b0 F#
b0 E#
b100 D#
b0 C#
b0 B#
1A#
0@#
b0 ?#
0>#
0=#
b0 4#
b0 3#
b0 2#
b0 1#
b0 0#
b0 /#
b0 .#
b0 -#
b0 ,#
b0 +#
b0 *#
b0 )#
b0 (#
b100 '#
b0 &#
b0 %#
bx $#
b1 ##
b0 "#
b0 !#
b1 ~"
b0 }"
b1 |"
b0 {"
b0 z"
b0 k
b0 j
b0 i
0h
0g
1f
0e
bx d
0c
0b
0a
b0 `
b0 _
b0 ^
b0 ]
b1 \
b0 [
b0 Z
bx Y
b0 X
b0 W
b0 V
b0 U
b0 T
b0 S
b0 R
b0 Q
b0 P
b0 O
b0 N
b0 M
b0 L
b0 K
b0 J
b0 I
b0 H
0G
b0 F
b0 E
b0 D
b0 C
b0 B
b0 A
b0 @
b0 ?
b0 >
b0 =
b0 <
b0 ;
b0 :
b0 9
b0 8
b10 7
06
b0 5
b0 4
b0 3
b0 2
b0 1
b0 0
b0 /
b0 .
b0 -
b0 ,
b0 +
b0 *
b0 )
b0 (
b0 '
b10 &
0%
b0 !
$end
#5
b10000110 Y
b10000110 d
b10000110 $#
b10000110 p#
b10000110 _#
b10000110 A$
1%
#10
0%
#15
1%
#20
0%
16
#25
1e
0f
b10 ~"
b1 }"
1%
#30
0%
#35
b0 '#
b0 D#
0A#
b1 ,#
b1 ?#
b10000110 .#
b10000110 0#
b10000110 B#
b10000110 F#
b10000110 H#
b10000110 J#
b1 H
b1 [
b1 /#
b1 M#
b1 r#
b1 C$
b10 \
b10 |"
b10 ##
1g
0e
b11 ~"
b1 -#
b1 3#
b10 }"
b1 &#
b1 K#
1%
#40
0%
#45
b1 .#
b1 0#
b1 B#
b1 F#
b1 H#
b1 J#
b0 \
b0 |"
b0 ##
0g
b100 ~"
b11 }"
b10000110 _
b10000110 j
b10000110 (#
b10000110 G#
1%
#50
0%
#55
b1 \
b1 |"
b1 ##
1f
b101 ~"
b100 }"
1%
#60
0%
#65
1e
0f
b110 ~"
b101 }"
b1 Z
b1 i
b1 %#
b1 I#
b1 L#
b1 q#
b1 %$
b1 B$
1%
#70
0%
#75
b10 ,#
b10 ?#
b1111 .#
b1111 0#
b1111 B#
b1111 F#
b1111 H#
b1111 J#
b10 H
b10 [
b10 /#
b10 M#
b10 r#
b10 C$
b10 \
b10 |"
b10 ##
1c
0e
b0 ~"
b10 -#
b10 3#
b110 }"
b10 &#
b10 K#
b1111 Y
b1111 d
b1111 $#
b1111 p#
b1111 _#
b1111 A$
1%
#80
0%
#85
b10 .#
b10 0#
b10 B#
b10 F#
b10 H#
b10 J#
b1 \
b1 |"
b1 ##
1f
0c
b1 ~"
b10001 ,#
b10001 ?#
b0 }"
b1111 +#
b1111 1#
b1111 2#
1%
#90
0%
#95
1e
0f
b10 ~"
b1 }"
b10 Z
b10 i
b10 %#
b10 I#
b10 L#
b10 q#
b10 %$
b10 B$
1%
#100
0%
#105
b10010 ,#
b10010 ?#
b10001001 .#
b10001001 0#
b10001001 B#
b10001001 F#
b10001001 H#
b10001001 J#
b11 H
b11 [
b11 /#
b11 M#
b11 r#
b11 C$
b10 \
b10 |"
b10 ##
1g
0e
b11 ~"
b11 -#
b11 3#
b10 }"
b11 &#
b11 K#
b10001001 Y
b10001001 d
b10001001 $#
b10001001 p#
b10001001 _#
b10001001 A$
1%
#110
0%
#115
b10010 .#
b10010 0#
b10010 B#
b10010 F#
b10010 H#
b10010 J#
b0 \
b0 |"
b0 ##
0g
b1101011 ~"
b11 }"
b10001001 _
b10001001 j
b10001001 (#
b10001001 G#
1%
#120
0%
#125
b11 .#
b11 0#
b11 B#
b11 F#
b11 H#
b11 J#
b1 \
b1 |"
b1 ##
1f
b1101100 ~"
b1101011 }"
1%
#130
0%
#135
1e
0f
b1101101 ~"
b1101100 }"
b11 Z
b11 i
b11 %#
b11 I#
b11 L#
b11 q#
b11 %$
b11 B$
1%
#140
0%
#145
b10011 ,#
b10011 ?#
b11110000 .#
b11110000 0#
b11110000 B#
b11110000 F#
b11110000 H#
b11110000 J#
b100 H
b100 [
b100 /#
b100 M#
b100 r#
b100 C$
b10 \
b10 |"
b10 ##
1f
0e
b1101110 ~"
b100 -#
b100 3#
b1101101 }"
b100 &#
b100 K#
b11110000 Y
b11110000 d
b11110000 $#
b11110000 p#
b11110000 _#
b11110000 A$
1%
#150
0%
#155
b10 .#
b10 0#
b10 B#
b10 F#
b10 H#
b10 J#
0f
b1101111 ~"
b10 Y
b10 d
b10 $#
b10 p#
0@$
b1101110 }"
b11110000 Z
b11110000 i
b11110000 %#
b11110000 I#
b11110000 L#
b11110000 q#
b11110000 %$
b11110000 B$
1%
#160
0%
#165
1b
b0 ~"
b1101111 }"
1%
#170
0%
#175
b100 .#
b100 0#
b100 B#
b100 F#
b100 H#
b100 J#
b1 \
b1 |"
b1 ##
1f
0b
b1 ~"
b0 }"
b10 *#
b10 C#
1%
#180
0%
#185
1e
0f
b10 ~"
b11110000 Y
b11110000 d
b11110000 $#
b11110000 p#
1@$
b1 }"
b100 Z
b100 i
b100 %#
b100 I#
b100 L#
b100 q#
b100 %$
b100 B$
1%
#190
0%
#195
b10100 ,#
b10100 ?#
b10010110 .#
b10010110 0#
b10010110 B#
b10010110 F#
b10010110 H#
b10010110 J#
b101 H
b101 [
b101 /#
b101 M#
b101 r#
b101 C$
b10 \
b10 |"
b10 ##
1g
0e
b11 ~"
b101 -#
b101 3#
b10 }"
b101 &#
b101 K#
b10010110 Y
b10010110 d
b10010110 $#
b10010110 p#
b10010110 _#
b10010110 A$
1%
#200
0%
#205
b10100 .#
b10100 0#
b10100 B#
b10100 F#
b10100 H#
b10100 J#
b0 \
b0 |"
b0 ##
0g
b1100 ~"
b11 }"
b10010110 _
b10010110 j
b10010110 (#
b10010110 G#
1%
#210
0%
#215
b101 .#
b101 0#
b101 B#
b101 F#
b101 H#
b101 J#
b1 \
b1 |"
b1 ##
1f
b1101 ~"
b1100 }"
1%
#220
0%
#225
1e
0f
b1110 ~"
b1101 }"
b101 Z
b101 i
b101 %#
b101 I#
b101 L#
b101 q#
b101 %$
b101 B$
1%
#230
0%
#235
b10101 ,#
b10101 ?#
b11100000 .#
b11100000 0#
b11100000 B#
b11100000 F#
b11100000 H#
b11100000 J#
b110 H
b110 [
b110 /#
b110 M#
b110 r#
b110 C$
b10 \
b10 |"
b10 ##
1f
0e
b1111 ~"
b110 -#
b110 3#
b1110 }"
b110 &#
b110 K#
b11100000 Y
b11100000 d
b11100000 $#
b11100000 p#
b11100000 _#
b11100000 A$
1%
#240
0%
#245
b11110 ,#
b11110 ?#
b1111 H
b1111 [
b1111 /#
b1111 M#
b1111 r#
b1111 C$
b1111 -#
b1111 3#
bx .#
bx 0#
bx B#
bx F#
bx H#
bx J#
b1 ]
b1 {"
b1 "#
1G
0f
b0 ~"
bx Y
bx d
bx $#
bx p#
0@$
b1111 }"
b11100000 Z
b11100000 i
b11100000 %#
b11100000 I#
b11100000 L#
b11100000 q#
b11100000 %$
b11100000 B$
1%
#250
0%
#255
b10101 ,#
b10101 ?#
b110 H
b110 [
b110 /#
b110 M#
b110 r#
b110 C$
b110 .#
b110 0#
b110 B#
b110 F#
b110 H#
b110 J#
b110 -#
b110 3#
b1 \
b1 |"
b1 ##
b0 ]
b0 {"
b0 "#
1f
0G
b1 ~"
b0 }"
b1111 !
b1111 X
b1111 o#
b1111 s#
1%
#260
0%
#265
1e
0f
b10 ~"
b11100000 Y
b11100000 d
b11100000 $#
b11100000 p#
1@$
b1 }"
b110 Z
b110 i
b110 %#
b110 I#
b110 L#
b110 q#
b110 %$
b110 B$
1%
#270
0%
#275
b10110 ,#
b10110 ?#
b1000011 .#
b1000011 0#
b1000011 B#
b1000011 F#
b1000011 H#
b1000011 J#
b111 H
b111 [
b111 /#
b111 M#
b111 r#
b111 C$
b10 \
b10 |"
b10 ##
1g
0e
b11 ~"
b111 -#
b111 3#
b10 }"
b111 &#
b111 K#
b1000011 Y
b1000011 d
b1000011 $#
b1000011 p#
b1000011 _#
b1000011 A$
1%
#280
0%
#285
b10110 .#
b10110 0#
b10110 B#
b10110 F#
b10110 H#
b10110 J#
b0 \
b0 |"
b0 ##
0g
b10111 ~"
b11 }"
b1000011 _
b1000011 j
b1000011 (#
b1000011 G#
1%
#290
0%
#295
b10 H
b10 [
b10 /#
b10 M#
b10 r#
b10 C$
b1101 .#
b1101 0#
b1101 B#
b1101 F#
b1101 H#
b1101 J#
b10 -#
b10 3#
b1101 ,#
b1101 ?#
b10 ]
b10 {"
b10 "#
b10 ^
b10 z"
b10 !#
b10 4#
b11000 ~"
b10111 }"
1%
#300
0%
#305
1h
1c
b0 ~"
b11000 }"
1%
#310
0%
#315
b111 H
b111 [
b111 /#
b111 M#
b111 r#
b111 C$
b111 -#
b111 3#
b111 .#
b111 0#
b111 B#
b111 F#
b111 H#
b111 J#
b1 \
b1 |"
b1 ##
b0 ]
b0 {"
b0 "#
b0 ^
b0 z"
b0 !#
b0 4#
1f
0h
0c
b1 ~"
b10100 ,#
b10100 ?#
b0 }"
b1101 +#
b1101 1#
b1101 2#
1%
#320
0%
#325
1e
0f
b10 ~"
b1 }"
b111 Z
b111 i
b111 %#
b111 I#
b111 L#
b111 q#
b111 %$
b111 B$
1%
#330
0%
#335
b10101 ,#
b10101 ?#
b100001 .#
b100001 0#
b100001 B#
b100001 F#
b100001 H#
b100001 J#
b1000 H
b1000 [
b1000 /#
b1000 M#
b1000 r#
b1000 C$
b10 \
b10 |"
b10 ##
1g
0e
b11 ~"
b1000 -#
b1000 3#
b10 }"
b1000 &#
b1000 K#
b100001 Y
b100001 d
b100001 $#
b100001 p#
b100001 _#
b100001 A$
1%
#340
0%
#345
b10101 .#
b10101 0#
b10101 B#
b10101 F#
b10101 H#
b10101 J#
b0 \
b0 |"
b0 ##
0g
b101001 ~"
b11 }"
b100001 _
b100001 j
b100001 (#
b100001 G#
1%
#350
0%
#355
b1000 .#
b1000 0#
b1000 B#
b1000 F#
b1000 H#
b1000 J#
b1 \
b1 |"
b1 ##
1f
b101010 ~"
b101001 }"
1%
#360
0%
#365
0f
b10001110 ~"
b101010 }"
b1000 Z
b1000 i
b1000 %#
b1000 I#
b1000 L#
b1000 q#
b1000 %$
b1000 B$
1%
#370
0%
#375
b0 .#
b0 0#
b0 B#
b0 F#
b0 H#
b0 J#
b10 \
b10 |"
b10 ##
1e
b0 ~"
b10001110 }"
b0 Y
b0 d
b0 $#
b0 p#
b0 _#
b0 A$
1%
#380
0%
#385
b10110 ,#
b10110 ?#
b1001 .#
b1001 0#
b1001 B#
b1001 F#
b1001 H#
b1001 J#
b1001 H
b1001 [
b1001 /#
b1001 M#
b1001 r#
b1001 C$
b1 \
b1 |"
b1 ##
1f
0e
b1 ~"
b1001 -#
b1001 3#
b0 }"
b1001 &#
b1001 K#
1%
#390
0%
#395
1e
0f
b10 ~"
b1 }"
b1001 Z
b1001 i
b1001 %#
b1001 I#
b1001 L#
b1001 q#
b1001 %$
b1001 B$
1%
#400
0%
#405
b10111 ,#
b10111 ?#
b100000 .#
b100000 0#
b100000 B#
b100000 F#
b100000 H#
b100000 J#
b1010 H
b1010 [
b1010 /#
b1010 M#
b1010 r#
b1010 C$
b10 \
b10 |"
b10 ##
1g
0e
b11 ~"
b1010 -#
b1010 3#
b10 }"
b1010 &#
b1010 K#
b100000 Y
b100000 d
b100000 $#
b100000 p#
b100000 _#
b100000 A$
1%
#410
0%
