APS's/APS4 - Computer/computer/computer.vcd
$date
	Thu Aug 14 23:56:00 2025
$end
$version
	Icarus Verilog
$end
$timescale
	1s
$end
$scope module computer_tb $end
$var wire 8 ! port_out_00 [7:0] $end
$var parameter 32 " PERIODO_CLK $end
$var parameter 8 # RESULTADO_ESPERADO $end
$var reg 1 $ clk $end
$var reg 8 % port_in_00 [7:0] $end
$var reg 8 & port_in_01 [7:0] $end
$var reg 8 ' port_in_02 [7:0] $end
$var reg 8 ( port_in_03 [7:0] $end
$var reg 8 ) port_in_04 [7:0] $end
$var reg 8 * port_in_05 [7:0] $end
$var reg 8 + port_in_06 [7:0] $end
$var reg 8 , port_in_07 [7:0] $end
$var reg 8 - port_in_08 [7:0] $end
$var reg 8 . port_in_09 [7:0] $end
$var reg 8 / port_in_10 [7:0] $end
$var reg 8 0 port_in_11 [7:0] $end
$var reg 8 1 port_in_12 [7:0] $end
$var reg 8 2 port_in_13 [7:0] $end
$var reg 8 3 port_in_14 [7:0] $end
$var reg 8 4 port_in_15 [7:0] $end
$var reg 1 5 reset $end
$scope module dut $end
$var wire 1 $ clk $end
$var wire 8 6 port_in_00 [7:0] $end
$var wire 8 7 port_in_01 [7:0] $end
$var wire 8 8 port_in_02 [7:0] $end
$var wire 8 9 port_in_03 [7:0] $end
$var wire 8 : port_in_04 [7:0] $end
$var wire 8 ; port_in_05 [7:0] $end
$var wire 8 < port_in_06 [7:0] $end
$var wire 8 = port_in_07 [7:0] $end
$var wire 8 > port_in_08 [7:0] $end
$var wire 8 ? port_in_09 [7:0] $end
$var wire 8 @ port_in_10 [7:0] $end
$var wire 8 A port_in_11 [7:0] $end
$var wire 8 B port_in_12 [7:0] $end
$var wire 8 C port_in_13 [7:0] $end
$var wire 8 D port_in_14 [7:0] $end
$var wire 8 E port_in_15 [7:0] $end
$var wire 1 5 reset $end
$var wire 1 F write $end
$var wire 8 G to_memory [7:0] $end
$var wire 8 H port_out_15 [7:0] $end
$var wire 8 I port_out_14 [7:0] $end
$var wire 8 J port_out_13 [7:0] $end
$var wire 8 K port_out_12 [7:0] $end
$var wire 8 L port_out_11 [7:0] $end
$var wire 8 M port_out_10 [7:0] $end
$var wire 8 N port_out_09 [7:0] $end
$var wire 8 O port_out_08 [7:0] $end
$var wire 8 P port_out_07 [7:0] $end
$var wire 8 Q port_out_06 [7:0] $end
$var wire 8 R port_out_05 [7:0] $end
$var wire 8 S port_out_04 [7:0] $end
$var wire 8 T port_out_03 [7:0] $end
$var wire 8 U port_out_02 [7:0] $end
$var wire 8 V port_out_01 [7:0] $end
$var wire 8 W port_out_00 [7:0] $end
$var wire 8 X from_memory [7:0] $end
$var wire 8 Y address [7:0] $end
$scope module CPU $end
$var wire 1 $ clk $end
$var wire 1 5 reset $end
$var wire 1 F write $end
$var wire 8 Z to_memory [7:0] $end
$var wire 2 [ selBUS2 [1:0] $end
$var wire 2 \ selBUS1 [1:0] $end
$var wire 3 ] selALU [2:0] $end
$var wire 8 ^ outIR [7:0] $end
$var wire 4 _ outCCR [3:0] $end
$var wire 1 ` loadPC $end
$var wire 1 a loadB $end
$var wire 1 b loadA $end
$var wire 8 c from_memory [7:0] $end
$var wire 1 d enPC $end
$var wire 1 e enMAR $end
$var wire 1 f enIR $end
$var wire 1 g enCCR $end
$var wire 8 h address [7:0] $end
$scope module ControlUnit $end
$var wire 1 $ clk $end
$var wire 1 5 reset $end
$var wire 8 i IR [7:0] $end
$var wire 4 j CCR_Result [3:0] $end
$var parameter 8 k ADD_AB $end
$var parameter 32 l ALU_EXEC_0 $end
$var parameter 32 m ALU_EXEC_1 $end
$var parameter 8 n BCC $end
$var parameter 8 o BCS $end
$var parameter 8 p BEQ $end
$var parameter 8 q BMI $end
$var parameter 8 r BNE $end
$var parameter 8 s BPL $end
$var parameter 8 t BRA $end
$var parameter 32 u BRANCH_0 $end
$var parameter 32 v BRANCH_1 $end
$var parameter 8 w BVC $end
$var parameter 8 x BVS $end
$var parameter 8 y DECA $end
$var parameter 32 z DECODE $end
$var parameter 32 { FETCH_0 $end
$var parameter 32 | FETCH_1 $end
$var parameter 32 } FETCH_2 $end
$var parameter 8 ~ LDA_DIR $end
$var parameter 32 !" LDA_DIR_0 $end
$var parameter 32 "" LDA_DIR_1 $end
$var parameter 32 #" LDA_DIR_2 $end
$var parameter 32 $" LDA_DIR_3 $end
$var parameter 32 %" LDA_DIR_4 $end
$var parameter 8 &" LDA_IMM $end
$var parameter 32 '" LDA_IMM_0 $end
$var parameter 32 (" LDA_IMM_1 $end
$var parameter 32 )" LDA_IMM_2 $end
$var parameter 8 *" LDB_DIR $end
$var parameter 32 +" LDB_DIR_0 $end
$var parameter 32 ," LDB_DIR_1 $end
$var parameter 32 -" LDB_DIR_2 $end
$var parameter 32 ." LDB_DIR_3 $end
$var parameter 32 /" LDB_DIR_4 $end
$var parameter 8 0" LDB_IMM $end
$var parameter 32 1" LDB_IMM_0 $end
$var parameter 32 2" LDB_IMM_1 $end
$var parameter 32 3" LDB_IMM_2 $end
$var parameter 8 4" STA_DIR $end
$var parameter 32 5" STA_DIR_0 $end
$var parameter 32 6" STA_DIR_1 $end
$var parameter 32 7" STA_DIR_2 $end
$var parameter 32 8" STA_DIR_3 $end
$var parameter 8 9" STB_DIR $end
$var parameter 32 :" STB_DIR_0 $end
$var parameter 32 ;" STB_DIR_1 $end
$var parameter 32 <" STB_DIR_2 $end
$var parameter 32 =" STB_DIR_3 $end
$var reg 3 >" ALU_Sel [2:0] $end
$var reg 1 b A_Load $end
$var reg 1 a B_Load $end
$var reg 2 ?" Bus1_Sel [1:0] $end
$var reg 2 @" Bus2_Sel [1:0] $end
$var reg 1 g CCR_Load $end
$var reg 1 f IR_Load $end
$var reg 1 e MAR_Load $end
$var reg 1 d PC_Inc $end
$var reg 1 ` PC_Load $end
$var reg 8 A" current_state [7:0] $end
$var reg 8 B" next_state [7:0] $end
$var reg 1 C" take_branch $end
$var reg 1 F write $end
$scope begin NEXT_STATE_LOGIC $end
$upscope $end
$scope begin OUTPUT_LOGIC $end
$upscope $end
$scope begin STATE_MEMORY $end
$upscope $end
$upscope $end
$scope module DataPath $end
$var wire 3 D" ALU_Sel [2:0] $end
$var wire 1 b A_Load $end
$var wire 1 a B_Load $end
$var wire 2 E" Bus1_Sel [1:0] $end
$var wire 2 F" Bus2_Sel [1:0] $end
$var wire 1 g CCR_Load $end
$var wire 1 f IR_Load $end
$var wire 1 e MAR_Load $end
$var wire 1 d PC_Inc $end
$var wire 1 ` PC_Load $end
$var wire 1 $ clk $end
$var wire 1 5 reset $end
$var wire 8 G" from_memory [7:0] $end
$var wire 8 H" address [7:0] $end
$var wire 8 I" PC_out [7:0] $end
$var wire 4 J" NZVC [3:0] $end
$var wire 8 K" IR_out [7:0] $end
$var wire 4 L" CCR_Result [3:0] $end
$var wire 8 M" B_out [7:0] $end
$var wire 8 N" A_out [7:0] $end
$var wire 8 O" ALU_Result [7:0] $end
$var reg 8 P" bus_1 [7:0] $end
$var reg 8 Q" bus_2 [7:0] $end
$var reg 8 R" to_memory [7:0] $end
$scope module A $end
$var wire 1 $ clk $end
$var wire 1 b enable $end
$var wire 8 S" reg_in [7:0] $end
$var wire 1 5 reset $end
$var reg 8 T" reg_out [7:0] $end
$upscope $end
$scope module ALU $end
$var wire 8 U" a [7:0] $end
$var wire 8 V" b [7:0] $end
$var wire 3 W" operation [2:0] $end
$var parameter 3 X" ADD $end
$var parameter 3 Y" AND $end
$var parameter 3 Z" DEC $end
$var parameter 3 [" INC $end
$var parameter 3 \" NOT $end
$var parameter 3 ]" OR $end
$var parameter 3 ^" SUB $end
$var parameter 3 _" XOR $end
$var reg 1 `" c $end
$var reg 1 a" n $end
$var reg 8 b" result [7:0] $end
$var reg 1 c" v $end
$var reg 1 d" z $end
$upscope $end
$scope module B $end
$var wire 1 $ clk $end
$var wire 1 a enable $end
$var wire 8 e" reg_in [7:0] $end
$var wire 1 5 reset $end
$var reg 8 f" reg_out [7:0] $end
$upscope $end
$scope module CCR $end
$var wire 1 $ clk $end
$var wire 1 g enable $end
$var wire 4 g" reg_in [3:0] $end
$var wire 1 5 reset $end
$var reg 4 h" reg_out [3:0] $end
$upscope $end
$scope module IR $end
$var wire 1 $ clk $end
$var wire 1 f enable $end
$var wire 8 i" reg_in [7:0] $end
$var wire 1 5 reset $end
$var reg 8 j" reg_out [7:0] $end
$upscope $end
$scope module MAR $end
$var wire 1 $ clk $end
$var wire 1 e enable $end
$var wire 8 k" reg_in [7:0] $end
$var wire 1 5 reset $end
$var reg 8 l" reg_out [7:0] $end
$upscope $end
$scope module PC $end
$var wire 1 $ clk $end
$var wire 8 m" count_in [7:0] $end
$var wire 1 d enable $end
$var wire 1 ` load $end
$var wire 1 5 reset $end
$var reg 8 n" count [7:0] $end
$upscope $end
$scope begin MUX_BUS1 $end
$upscope $end
$scope begin MUX_BUS2 $end
$upscope $end
$upscope $end
$upscope $end
$scope module Memory $end
$var wire 8 o" address [7:0] $end
$var wire 1 $ clk $end
$var wire 8 p" data_in [7:0] $end
$var wire 8 q" port_in_00 [7:0] $end
$var wire 8 r" port_in_01 [7:0] $end
$var wire 8 s" port_in_02 [7:0] $end
$var wire 8 t" port_in_03 [7:0] $end
$var wire 8 u" port_in_04 [7:0] $end
$var wire 8 v" port_in_05 [7:0] $end
$var wire 8 w" port_in_06 [7:0] $end
$var wire 8 x" port_in_07 [7:0] $end
$var wire 8 y" port_in_08 [7:0] $end
$var wire 8 z" port_in_09 [7:0] $end
$var wire 8 {" port_in_10 [7:0] $end
$var wire 8 |" port_in_11 [7:0] $end
$var wire 8 }" port_in_12 [7:0] $end
$var wire 8 ~" port_in_13 [7:0] $end
$var wire 8 !# port_in_14 [7:0] $end
$var wire 8 "# port_in_15 [7:0] $end
$var wire 1 5 reset $end
$var wire 1 F write $end
$var wire 8 ## rwm_out [7:0] $end
$var wire 8 $# rom_out [7:0] $end
$var wire 8 %# port_out_15 [7:0] $end
$var wire 8 &# port_out_14 [7:0] $end
$var wire 8 '# port_out_13 [7:0] $end
$var wire 8 (# port_out_12 [7:0] $end
$var wire 8 )# port_out_11 [7:0] $end
$var wire 8 *# port_out_10 [7:0] $end
$var wire 8 +# port_out_09 [7:0] $end
$var wire 8 ,# port_out_08 [7:0] $end
$var wire 8 -# port_out_07 [7:0] $end
$var wire 8 .# port_out_06 [7:0] $end
$var wire 8 /# port_out_05 [7:0] $end
$var wire 8 0# port_out_04 [7:0] $end
$var wire 8 1# port_out_03 [7:0] $end
$var wire 8 2# port_out_02 [7:0] $end
$var wire 8 3# port_out_01 [7:0] $end
$var wire 8 4# port_out_00 [7:0] $end
$var reg 8 5# data_out [7:0] $end
$scope module OUT $end
$var wire 8 6# address [7:0] $end
$var wire 1 $ clk $end
$var wire 8 7# data_in [7:0] $end
$var wire 1 5 reset $end
$var wire 1 F write $end
$var reg 8 8# port_out_00 [7:0] $end
$var reg 8 9# port_out_01 [7:0] $end
$var reg 8 :# port_out_02 [7:0] $end
$var reg 8 ;# port_out_03 [7:0] $end
$var reg 8 <# port_out_04 [7:0] $end
$var reg 8 =# port_out_05 [7:0] $end
$var reg 8 ># port_out_06 [7:0] $end
$var reg 8 ?# port_out_07 [7:0] $end
$var reg 8 @# port_out_08 [7:0] $end
$var reg 8 A# port_out_09 [7:0] $end
$var reg 8 B# port_out_10 [7:0] $end
$var reg 8 C# port_out_11 [7:0] $end
$var reg 8 D# port_out_12 [7:0] $end
$var reg 8 E# port_out_13 [7:0] $end
$var reg 8 F# port_out_14 [7:0] $end
$var reg 8 G# port_out_15 [7:0] $end
$upscope $end
$scope module ROM $end
$var wire 8 H# address [7:0] $end
$var wire 1 $ clk $end
$var parameter 8 I# ADD_AB $end
$var parameter 8 J# BNE $end
$var parameter 8 K# BRA $end
$var parameter 8 L# DECA $end
$var parameter 8 M# LDA_DIR $end
$var parameter 8 N# LDA_IMM $end
$var parameter 8 O# LDB_DIR $end
$var parameter 8 P# LDB_IMM $end
$var parameter 8 Q# STA_DIR $end
$var parameter 8 R# STB_DIR $end
$var reg 1 S# EN $end
$var reg 8 T# data_out [7:0] $end
$upscope $end
$scope module RWM $end
$var wire 1 F WE $end
$var wire 8 U# address [7:0] $end
$var wire 1 $ clk $end
$var wire 8 V# data_in [7:0] $end
$var reg 1 W# EN $end
$var reg 8 X# data_out [7:0] $end
$upscope $end
$scope begin MUX $end
$upscope $end
$upscope $end
$upscope $end
$upscope $end
$enddefinitions $end
$comment Show the parameter values. $end
$dumpall
b10010111 R#
b10010110 Q#
b10001000 P#
b10001001 O#
b10000110 N#
b10000111 M#
b1001000 L#
b100000 K#
b100100 J#
b1000010 I#
b110 _"
b10 ^"
b101 ]"
b111 \"
b1 ["
b11 Z"
b100 Y"
b0 X"
b1110011 ="
b1110010 <"
b1110001 ;"
b1110000 :"
b10010111 9"
b1111 8"
b1110 7"
b1101 6"
b1100 5"
b10010110 4"
b1101010 3"
b1101001 2"
b1101000 1"
b10001000 0"
b1101111 /"
b1101110 ."
b1101101 -"
b1101100 ,"
b1101011 +"
b10001001 *"
b110 )"
b101 ("
b100 '"
b10000110 &"
b1011 %"
b1010 $"
b1001 #"
b1000 ""
b111 !"
b10000111 ~
b10 }
b1 |
b0 {
b11 z
b1001000 y
b100101 x
b100110 w
b10101 v
b10100 u
b100000 t
b100010 s
b100100 r
b100001 q
b100011 p
b100111 o
b101000 n
b10001 m
b10000 l
b1000010 k
b1111 #
b1010 "
$end
#0
$dumpvars
bx X#
0W#
b0 V#
b0 U#
bx T#
1S#
b0 H#
b0 G#
b0 F#
b0 E#
b0 D#
b0 C#
b0 B#
b0 A#
b0 @#
b0 ?#
b0 >#
b0 =#
b0 <#
b0 ;#
b0 :#
b0 9#
b0 8#
b0 7#
b0 6#
bx 5#
b0 4#
b0 3#
b0 2#
b0 1#
b0 0#
b0 /#
b0 .#
b0 -#
b0 ,#
b0 +#
b0 *#
b0 )#
b0 (#
b0 '#
b0 &#
b0 %#
bx $#
bx ##
b0 "#
b0 !#
b0 ~"
b0 }"
b0 |"
b0 {"
b0 z"
b0 y"
b0 x"
b0 w"
b0 v"
b0 u"
b0 t"
b0 s"
b0 r"
b0 q"
b0 p"
b0 o"
b0 n"
b0 m"
b0 l"
b0 k"
b0 j"
b0 i"
b0 h"
b100 g"
b0 f"
b0 e"
1d"
0c"
b0 b"
0a"
0`"
b0 W"
b0 V"
b0 U"
b0 T"
b0 S"
b0 R"
b0 Q"
b0 P"
b0 O"
b0 N"
b0 M"
b0 L"
b0 K"
b100 J"
b0 I"
b0 H"
bx G"
b1 F"
b0 E"
b0 D"
0C"
b1 B"
b0 A"
b1 @"
b0 ?"
b0 >"
b0 j
b0 i
b0 h
0g
0f
1e
0d
bx c
0b
0a
0`
b0 _
b0 ^
b0 ]
b0 \
b1 [
b0 Z
b0 Y
bx X
b0 W
b0 V
b0 U
b0 T
b0 S
b0 R
b0 Q
b0 P
b0 O
b0 N
b0 M
b0 L
b0 K
b0 J
b0 I
b0 H
b0 G
0F
b0 E
b0 D
b0 C
b0 B
b0 A
b0 @
b0 ?
b0 >
b0 =
b0 <
b0 ;
b0 :
b0 9
b0 8
b0 7
b0 6
05
b0 4
b0 3
b0 2
b0 1
b0 0
b0 /
b0 .
b0 -
b0 ,
b0 +
b0 *
b0 )
b0 (
b0 '
b0 &
b0 %
0$
b0 !
$end
#5
b10000110 X
b10000110 c
b10000110 G"
b10000110 5#
b10000110 $#
b10000110 T#
1$
#10
0$
#15
1$
#20
0$
15
#25
1d
b0 [
b0 @"
b0 F"
0e
b10 B"
b1 A"
1$
#30
0$
#35
b0 J"
b0 g"
0d"
b1 O"
b1 b"
b10000110 Q"
b10000110 S"
b10000110 e"
b10000110 i"
b10000110 k"
b10000110 m"
b1 G
b1 Z
b1 R"
b1 p"
b1 7#
b1 V#
b10 [
b10 @"
b10 F"
1f
0d
b11 B"
b1 P"
b1 V"
b10 A"
b1 I"
b1 n"
1$
#40
0$
#45
b1 Q"
b1 S"
b1 e"
b1 i"
b1 k"
b1 m"
b0 [
b0 @"
b0 F"
0f
b100 B"
b11 A"
b10000110 ^
b10000110 i
b10000110 K"
b10000110 j"
1$
#50
0$
#55
b1 [
b1 @"
b1 F"
1e
b101 B"
b100 A"
1$
#60
0$
#65
1d
b0 [
b0 @"
b0 F"
0e
b110 B"
b101 A"
b1 Y
b1 h
b1 H"
b1 l"
b1 o"
b1 6#
b1 H#
b1 U#
1$
#70
0$
#75
b10 O"
b10 b"
b0 Q"
b0 S"
b0 e"
b0 i"
b0 k"
b0 m"
b10 G
b10 Z
b10 R"
b10 p"
b10 7#
b10 V#
b10 [
b10 @"
b10 F"
1b
0d
b0 B"
b10 P"
b10 V"
b110 A"
b10 I"
b10 n"
b0 X
b0 c
b0 G"
b0 5#
b0 $#
b0 T#
1$
#80
0$
#85
b10 Q"
b10 S"
b10 e"
b10 i"
b10 k"
b10 m"
1e
b1 [
b1 @"
b1 F"
0b
b1 B"
b0 A"
1$
#90
0$
#95
1d
b0 [
b0 @"
b0 F"
0e
b10 B"
b1 A"
b10 Y
b10 h
b10 H"
b10 l"
b10 o"
b10 6#
b10 H#
b10 U#
1$
#100
0$
#105
b11 O"
b11 b"
b10010110 Q"
b10010110 S"
b10010110 e"
b10010110 i"
b10010110 k"
b10010110 m"
b11 G
b11 Z
b11 R"
b11 p"
b11 7#
b11 V#
b10 [
b10 @"
b10 F"
1f
0d
b11 B"
b11 P"
b11 V"
b10 A"
b11 I"
b11 n"
b10010110 X
b10010110 c
b10010110 G"
b10010110 5#
b10010110 $#
b10010110 T#
1$
#110
0$
#115
b11 Q"
b11 S"
b11 e"
b11 i"
b11 k"
b11 m"
b0 [
b0 @"
b0 F"
0f
b1100 B"
b11 A"
b10010110 ^
b10010110 i
b10010110 K"
b10010110 j"
1$
#120
0$
#125
b1 [
b1 @"
b1 F"
1e
b1101 B"
b1100 A"
1$
#130
0$
#135
1d
b0 [
b0 @"
b0 F"
0e
b1110 B"
b1101 A"
b11 Y
b11 h
b11 H"
b11 l"
b11 o"
b11 6#
b11 H#
b11 U#
1$
#140
0$
#145
b100 O"
b100 b"
b10000000 Q"
b10000000 S"
b10000000 e"
b10000000 i"
b10000000 k"
b10000000 m"
b100 G
b100 Z
b100 R"
b100 p"
b100 7#
b100 V#
b10 [
b10 @"
b10 F"
1e
0d
b1111 B"
b100 P"
b100 V"
b1110 A"
b100 I"
b100 n"
b10000000 X
b10000000 c
b10000000 G"
b10000000 5#
b10000000 $#
b10000000 T#
1$
#150
0$
#155
b100 Q"
b100 S"
b100 e"
b100 i"
b100 k"
b100 m"
1F
b0 [
b0 @"
b0 F"
0e
b0 B"
bx X
bx c
bx G"
bx 5#
1W#
0S#
b1111 A"
b10000000 Y
b10000000 h
b10000000 H"
b10000000 l"
b10000000 o"
b10000000 6#
b10000000 H#
b10000000 U#
1$
#160
0$
#165
b1 [
b1 @"
b1 F"
1e
0F
b1 B"
b0 A"
1$
#170
0$
#175
1d
b0 [
b0 @"
b0 F"
0e
b10 B"
1S#
0W#
b1 A"
b100 Y
b100 h
b100 H"
b100 l"
b100 o"
b100 6#
b100 H#
b100 U#
b10000000 X
b10000000 c
b10000000 G"
b10000000 5#
b100 ##
b100 X#
1$
#180
0$
#185
b101 O"
b101 b"
b10000110 Q"
b10000110 S"
b10000110 e"
b10000110 i"
b10000110 k"
b10000110 m"
b101 G
b101 Z
b101 R"
b101 p"
b101 7#
b101 V#
b10 [
b10 @"
b10 F"
1f
0d
b11 B"
b101 P"
b101 V"
b10 A"
b101 I"
b101 n"
b10000110 X
b10000110 c
b10000110 G"
b10000110 5#
b10000110 $#
b10000110 T#
1$
#190
0$
#195
b101 Q"
b101 S"
b101 e"
b101 i"
b101 k"
b101 m"
b0 [
b0 @"
b0 F"
0f
b100 B"
b11 A"
b10000110 ^
b10000110 i
b10000110 K"
b10000110 j"
1$
#200
0$
#205
b1 [
b1 @"
b1 F"
1e
b101 B"
b100 A"
1$
#210
0$
#215
1d
b0 [
b0 @"
b0 F"
0e
b110 B"
b101 A"
b101 Y
b101 h
b101 H"
b101 l"
b101 o"
b101 6#
b101 H#
b101 U#
1$
#220
0$
#225
b110 O"
b110 b"
b110 G
b110 Z
b110 R"
b110 p"
b110 7#
b110 V#
b10 [
b10 @"
b10 F"
1b
0d
b0 B"
b110 P"
b110 V"
b110 A"
b110 I"
b110 n"
b101 X
b101 c
b101 G"
b101 5#
b101 $#
b101 T#
1$
#230
0$
#235
b110 Q"
b110 S"
b110 e"
b110 i"
b110 k"
b110 m"
1e
b1 [
b1 @"
b1 F"
0b
b1 B"
b1011 O"
b1011 b"
b0 A"
b101 N"
b101 T"
b101 U"
1$
#240
0$
#245
b1011 Q"
b1011 S"
b1011 e"
b1011 i"
b1011 k"
b1011 m"
1d
b0 [
b0 @"
b0 F"
0e
b10 B"
b1 A"
b110 Y
b110 h
b110 H"
b110 l"
b110 o"
b110 6#
b110 H#
b110 U#
1$
#250
0$
#255
b1100 O"
b1100 b"
b10010110 Q"
b10010110 S"
b10010110 e"
b10010110 i"
b10010110 k"
b10010110 m"
b111 G
b111 Z
b111 R"
b111 p"
b111 7#
b111 V#
b10 [
b10 @"
b10 F"
1f
0d
b11 B"
b111 P"
b111 V"
b10 A"
b111 I"
b111 n"
b10010110 X
b10010110 c
b10010110 G"
b10010110 5#
b10010110 $#
b10010110 T#
1$
#260
0$
#265
b1100 Q"
b1100 S"
b1100 e"
b1100 i"
b1100 k"
b1100 m"
b0 [
b0 @"
b0 F"
0f
b1100 B"
b11 A"
b10010110 ^
b10010110 i
b10010110 K"
b10010110 j"
1$
#270
0$
#275
b111 Q"
b111 S"
b111 e"
b111 i"
b111 k"
b111 m"
b1 [
b1 @"
b1 F"
1e
b1101 B"
b1100 A"
1$
#280
0$
#285
b1100 Q"
b1100 S"
b1100 e"
b1100 i"
b1100 k"
b1100 m"
1d
b0 [
b0 @"
b0 F"
0e
b1110 B"
b1101 A"
b111 Y
b111 h
b111 H"
b111 l"
b111 o"
b111 6#
b111 H#
b111 U#
1$
#290
0$
#295
b1101 O"
b1101 b"
b10000001 Q"
b10000001 S"
b10000001 e"
b10000001 i"
b10000001 k"
b10000001 m"
b1000 G
b1000 Z
b1000 R"
b1000 p"
b1000 7#
b1000 V#
b10 [
b10 @"
b10 F"
1e
0d
b1111 B"
b1000 P"
b1000 V"
b1110 A"
b1000 I"
b1000 n"
b10000001 X
b10000001 c
b10000001 G"
b10000001 5#
b10000001 $#
b10000001 T#
1$
#300
0$
#305
b1101 Q"
b1101 S"
b1101 e"
b1101 i"
b1101 k"
b1101 m"
1F
b0 [
b0 @"
b0 F"
0e
b0 B"
b100 X
b100 c
b100 G"
b100 5#
0S#
1W#
b1111 A"
b10000001 Y
b10000001 h
b10000001 H"
b10000001 l"
b10000001 o"
b10000001 6#
b10000001 H#
b10000001 U#
1$
#310
0$
#315
b1000 Q"
b1000 S"
b1000 e"
b1000 i"
b1000 k"
b1000 m"
b1 [
b1 @"
b1 F"
1e
0F
b1 B"
b0 A"
1$
#320
0$
#325
b1101 Q"
b1101 S"
b1101 e"
b1101 i"
b1101 k"
b1101 m"
1d
b0 [
b0 @"
b0 F"
0e
b10 B"
0W#
1S#
b1 A"
b1000 Y
b1000 h
b1000 H"
b1000 l"
b1000 o"
b1000 6#
b1000 H#
b1000 U#
b10000001 X
b10000001 c
b10000001 G"
b10000001 5#
b1000 ##
b1000 X#
1$
#330
0$
#335
b1110 O"
b1110 b"
b10000111 Q"
b10000111 S"
b10000111 e"
b10000111 i"
b10000111 k"
b10000111 m"
b1001 G
b1001 Z
b1001 R"
b1001 p"
b1001 7#
b1001 V#
b10 [
b10 @"
b10 F"
1f
0d
b11 B"
b1001 P"
b1001 V"
b10 A"
b1001 I"
b1001 n"
b10000111 X
b10000111 c
b10000111 G"
b10000111 5#
b10000111 $#
b10000111 T#
1$
#340
0$
#345
b1110 Q"
b1110 S"
b1110 e"
b1110 i"
b1110 k"
b1110 m"
b0 [
b0 @"
b0 F"
0f
b111 B"
b11 A"
b10000111 ^
b10000111 i
b10000111 K"
b10000111 j"
1$
#350
0$
#355
b1001 Q"
b1001 S"
b1001 e"
b1001 i"
b1001 k"
b1001 m"
b1 [
b1 @"
b1 F"
1e
b1000 B"
b111 A"
1$
#360
0$
#365
b1110 Q"
b1110 S"
b1110 e"
b1110 i"
b1110 k"
b1110 m"
1d
b0 [
b0 @"
b0 F"
0e
b1001 B"
b1000 A"
b1001 Y
b1001 h
b1001 H"
b1001 l"
b1001 o"
b1001 6#
b1001 H#
b1001 U#
1$
#370
0$
#375
b1111 O"
b1111 b"
b10000000 Q"
b10000000 S"
b10000000 e"
b10000000 i"
b10000000 k"
b10000000 m"
b1010 G
b1010 Z
b1010 R"
b1010 p"
b1010 7#
b1010 V#
b10 [
b10 @"
b10 F"
1e
0d
b1010 B"
b1010 P"
b1010 V"
b1001 A"
b1010 I"
b1010 n"
b10000000 X
b10000000 c
b10000000 G"
b10000000 5#
b10000000 $#
b10000000 T#
1$
#380
0$
#385
b1111 Q"
b1111 S"
b1111 e"
b1111 i"
b1111 k"
b1111 m"
b0 [
b0 @"
b0 F"
0e
b1011 B"
b1000 X
b1000 c
b1000 G"
b1000 5#
1W#
0S#
b1010 A"
b10000000 Y
b10000000 h
b10000000 H"
b10000000 l"
b10000000 o"
b10000000 6#
b10000000 H#
b10000000 U#
1$
#390
0$
#395
b100 Q"
b100 S"
b100 e"
b100 i"
b100 k"
b100 m"
b10 [
b10 @"
b10 F"
1b
b0 B"
b1011 A"
b100 X
b100 c
b100 G"
b100 5#
b100 ##
b100 X#
1$
#400
0$
#405
b1010 Q"
b1010 S"
b1010 e"
b1010 i"
b1010 k"
b1010 m"
1e
b1 [
b1 @"
b1 F"
0b
b1 B"
b1110 O"
b1110 b"
b0 A"
b100 N"
b100 T"
b100 U"
1$
#410
0$
#415
b1110 Q"
b1110 S"
b1110 e"
b1110 i"
b1110 k"
b1110 m"
1d
b0 [
b0 @"
b0 F"
0e
b10 B"
b10000000 X
b10000000 c
b10000000 G"
b10000000 5#
1S#
0W#
b1 A"
b1010 Y
b1010 h
b1010 H"
b1010 l"
b1010 o"
b1010 6#
b1010 H#
b1010 U#
1$
#420
0$
#425
b1111 O"
b1111 b"
b10001001 Q"
b10001001 S"
b10001001 e"
b10001001 i"
b10001001 k"
b10001001 m"
b1011 G
b1011 Z
b1011 R"
b1011 p"
b1011 7#
b1011 V#
b10 [
b10 @"
b10 F"
1f
0d
b11 B"
b1011 P"
b1011 V"
b10 A"
b1011 I"
b1011 n"
b10001001 X
b10001001 c
b10001001 G"
b10001001 5#
b10001001 $#
b10001001 T#
1$
#430
0$
#435
b1111 Q"
b1111 S"
b1111 e"
b1111 i"
b1111 k"
b1111 m"
b0 [
b0 @"
b0 F"
0f
b1101011 B"
b11 A"
b10001001 ^
b10001001 i
b10001001 K"
b10001001 j"
1$
#440
0$
#445
b1011 Q"
b1011 S"
b1011 e"
b1011 i"
b1011 k"
b1011 m"
b1 [
b1 @"
b1 F"
1e
b1101100 B"
b1101011 A"
1$
#450
0$
#455
b1111 Q"
b1111 S"
b1111 e"
b1111 i"
b1111 k"
b1111 m"
1d
b0 [
b0 @"
b0 F"
0e
b1101101 B"
b1101100 A"
b1011 Y
b1011 h
b1011 H"
b1011 l"
b1011 o"
b1011 6#
b1011 H#
b1011 U#
1$
#460
0$
#465
b10000 O"
b10000 b"
b10000001 Q"
b10000001 S"
b10000001 e"
b10000001 i"
b10000001 k"
b10000001 m"
b1100 G
b1100 Z
b1100 R"
b1100 p"
b1100 7#
b1100 V#
b10 [
b10 @"
b10 F"
1e
0d
b1101110 B"
b1100 P"
b1100 V"
b1101101 A"
b1100 I"
b1100 n"
b10000001 X
b10000001 c
b10000001 G"
b10000001 5#
b10000001 $#
b10000001 T#
1$
#470
0$
#475
b10000 Q"
b10000 S"
b10000 e"
b10000 i"
b10000 k"
b10000 m"
b0 [
b0 @"
b0 F"
0e
b1101111 B"
b100 X
b100 c
b100 G"
b100 5#
0S#
1W#
b1101110 A"
b10000001 Y
b10000001 h
b10000001 H"
b10000001 l"
b10000001 o"
b10000001 6#
b10000001 H#
b10000001 U#
1$
#480
0$
#485
b1000 Q"
b1000 S"
b1000 e"
b1000 i"
b1000 k"
b1000 m"
b10 [
b10 @"
b10 F"
1a
b0 B"
b1101111 A"
b1000 X
b1000 c
b1000 G"
b1000 5#
b1000 ##
b1000 X#
1$
#490
0$
#495
b1100 Q"
b1100 S"
b1100 e"
b1100 i"
b1100 k"
b1100 m"
1e
b1 [
b1 @"
b1 F"
0a
b1 B"
b0 A"
b1000 M"
b1000 f"
1$
#500
0$
#505
b10000 Q"
b10000 S"
b10000 e"
b10000 i"
b10000 k"
b10000 m"
1d
b0 [
b0 @"
b0 F"
0e
b10 B"
b10000001 X
b10000001 c
b10000001 G"
b10000001 5#
0W#
1S#
b1 A"
b1100 Y
b1100 h
b1100 H"
b1100 l"
b1100 o"
b1100 6#
b1100 H#
b1100 U#
1$
#510
0$
#515
b10001 O"
b10001 b"
b1000010 Q"
b1000010 S"
b1000010 e"
b1000010 i"
b1000010 k"
b1000010 m"
b1101 G
b1101 Z
b1101 R"
b1101 p"
b1101 7#
b1101 V#
b10 [
b10 @"
b10 F"
1f
0d
b11 B"
b1101 P"
b1101 V"
b10 A"
b1101 I"
b1101 n"
b1000010 X
b1000010 c
b1000010 G"
b1000010 5#
b1000010 $#
b1000010 T#
1$
#520
0$
